"Transfers_from","scenario","2020","2030","2040","2050","2060","2070","2080","2090","2100"
"England","SSP1",549.078491651001,633.945372111025,695.294924250802,736.194625677319,787.319252460466,817.994028530355,833.331416565299,848.668804600243,858.893729956873
"England","SSP2",549.078491651001,511.246267831472,490.796417118213,470.346566404954,449.896715691695,429.446864978436,419.221939621807,408.997014265177,398.772088908548
"England","SSP3",549.078491651001,408.997014265177,204.498507132589,0,0,0,0,0,0
"England","SSP4",549.078491651001,541.92104390136,541.92104390136,511.246267831472,460.121641048325,408.997014265177,357.87238748203,306.747760698883,255.623133915736
"England","SSP5",549.078491651001,531.696118544731,511.246267831472,582.820745327878,541.92104390136,408.997014265177,388.547163551919,368.09731283866,347.647462125401
