453 artificial surface pixels suggested, out of which 445 pixels are accepted. The total share of artificial surface in the UK increases from 5.92% to 6.09%. 2 new artificial surface pixels are suggested on excluded space and accepted as occasional rogue urbanisation (LAD c("Isles of Scilly", "Waltham Forest")). 8 new artificial surface pixels are suggested on space that is already artificial surface and therefore rejected (LAD c("Slough", "City of London", "Hackney", "Hammersmith and Fulham", "Islington", "Kensington and Chelsea", "Lambeth", "Tower Hamlets")). 
502 artificial surface pixels suggested, out of which 487 pixels are accepted. The total share of artificial surface in the UK increases from 6.09% to 6.28%. 1 new artificial surface pixels are suggested on excluded space and accepted as occasional rogue urbanisation (LAD Worthing). 15 new artificial surface pixels are suggested on space that is already artificial surface and therefore rejected (LAD c("Slough", "Isles of Scilly", "Watford", "Stevenage", "Wolverhampton", "City of London", "Hackney", "Hammersmith and Fulham", "Islington", "Kensington and Chelsea", "Lambeth", "Newham", "Tower Hamlets", "Waltham Forest", "Wandsworth")). 
555 artificial surface pixels suggested, out of which 531 pixels are accepted. The total share of artificial surface in the UK increases from 6.28% to 6.49%. 0 new artificial surface pixels are suggested on excluded space and accepted as occasional rogue urbanisation (LAD character(0)). 24 new artificial surface pixels are suggested on space that is already artificial surface and therefore rejected (LAD c("Slough", "Isles of Scilly", "Watford", "Oxford", "Ipswich", "Worthing", "Stevenage", "Wolverhampton", "City of London", "Brent", "Camden", "Hackney", "Hammersmith and Fulham", "Haringey", "Islington", "Kensington and Chelsea", "Lambeth", "Lewisham", "Newham", "Southwark", "Tower Hamlets", "Waltham Forest", "Wandsworth", "Westminster")). 
492 artificial surface pixels suggested, out of which 461 pixels are accepted. The total share of artificial surface in the UK increases from 6.49% to 6.67%. 0 new artificial surface pixels are suggested on excluded space and accepted as occasional rogue urbanisation (LAD character(0)). 31 new artificial surface pixels are suggested on space that is already artificial surface and therefore rejected (LAD c("Blackpool", "Reading", "Slough", "Portsmouth", "Southampton", "Isles of Scilly", "Eastbourne", "Watford", "Lincoln", "Oxford", "Ipswich", "Worthing", "Stevenage", "Liverpool", "Wolverhampton", "City of London", "Brent", "Camden", "Hackney", "Hammersmith and Fulham", "Haringey", "Islington", "Kensington and Chelsea", "Lambeth", "Lewisham", "Newham", "Southwark", "Tower Hamlets", "Waltham Forest", "Wandsworth", "Westminster")). 
454 artificial surface pixels suggested, out of which 419 pixels are accepted. The total share of artificial surface in the UK increases from 6.67% to 6.83%. 2 new artificial surface pixels are suggested on excluded space and accepted as occasional rogue urbanisation (LAD c("Gosport", "Spelthorne")). 35 new artificial surface pixels are suggested on space that is already artificial surface and therefore rejected (LAD c("Blackpool", "Reading", "Slough", "Portsmouth", "Southampton", "Isles of Scilly", "Eastbourne", "Watford", "Lincoln", "Oxford", "Ipswich", "Worthing", "Worcester", "Stevenage", "Liverpool", "Wolverhampton", "City of London", "Barking and Dagenham", "Brent", "Camden", "Hackney", "Hammersmith and Fulham", "Haringey", "Islington", "Kensington and Chelsea", "Lambeth", "Lewisham", "Merton", "Newham", "Southwark", "Sutton", "Tower Hamlets", "Waltham Forest", "Wandsworth", "Westminster")). 
406 artificial surface pixels suggested, out of which 363 pixels are accepted. The total share of artificial surface in the UK increases from 6.83% to 6.97%. 0 new artificial surface pixels are suggested on excluded space and accepted as occasional rogue urbanisation (LAD character(0)). 43 new artificial surface pixels are suggested on space that is already artificial surface and therefore rejected (LAD c("Blackpool", "Kingston upon Hull, City of", "Nottingham", "Reading", "Slough", "Portsmouth", "Southampton", "Isles of Scilly", "Eastbourne", "Hastings", "Gosport", "Watford", "Lincoln", "Norwich", "Oxford", "Tamworth", "Ipswich", "Spelthorne", "Worthing", "Worcester", "Stevenage", "Liverpool", "Wolverhampton", "City of London", "Barking and Dagenham", "Brent", "Camden", "Ealing", "Hackney", "Hammersmith and Fulham", "Haringey", "Islington", "Kensington and Chelsea", "Lambeth", "Lewisham", "Merton", 
"Newham", "Southwark", "Sutton", "Tower Hamlets", "Waltham Forest", "Wandsworth", "Westminster")). 
389 artificial surface pixels suggested, out of which 342 pixels are accepted. The total share of artificial surface in the UK increases from 6.97% to 7.1%. 1 new artificial surface pixels are suggested on excluded space and accepted as occasional rogue urbanisation (LAD Adur). 47 new artificial surface pixels are suggested on space that is already artificial surface and therefore rejected (LAD c("Blackpool", "Kingston upon Hull, City of", "Nottingham", "Luton", "Southend-on-Sea", "Reading", "Slough", "Portsmouth", "Southampton", "Isles of Scilly", "Cambridge", "Eastbourne", "Hastings", "Gosport", "Watford", "Lincoln", "Norwich", "Oxford", "Tamworth", "Ipswich", "Spelthorne", "Worthing", "Worcester", "Stevenage", "Liverpool", "Wolverhampton", "City of London", "Barking and Dagenham", "Brent", "Camden", "Ealing", "Greenwich", "Hackney", "Hammersmith and Fulham", "Haringey", "Islington", 
"Kensington and Chelsea", "Lambeth", "Lewisham", "Merton", "Newham", "Southwark", "Sutton", "Tower Hamlets", "Waltham Forest", "Wandsworth", "Westminster")). 
389 artificial surface pixels suggested, out of which 340 pixels are accepted. The total share of artificial surface in the UK increases from 7.1% to 7.23%. 0 new artificial surface pixels are suggested on excluded space and accepted as occasional rogue urbanisation (LAD character(0)). 49 new artificial surface pixels are suggested on space that is already artificial surface and therefore rejected (LAD c("Blackpool", "Kingston upon Hull, City of", "Nottingham", "Luton", "Southend-on-Sea", "Reading", "Slough", "Portsmouth", "Southampton", "Isles of Scilly", "Cambridge", "Eastbourne", "Hastings", "Harlow", "Gosport", "Watford", "Lincoln", "Norwich", "Oxford", "Tamworth", "Ipswich", "Spelthorne", "Adur", "Worthing", "Worcester", "Stevenage", "Liverpool", "Wolverhampton", "City of London", "Barking and Dagenham", "Brent", "Camden", "Ealing", "Greenwich", "Hackney", "Hammersmith and Fulham", "Haringey", 
"Islington", "Kensington and Chelsea", "Lambeth", "Lewisham", "Merton", "Newham", "Southwark", "Sutton", "Tower Hamlets", "Waltham Forest", "Wandsworth", "Westminster")). 
